<svg xmlns="http://www.w3.org/2000/svg" style="background-color: #D6565B" preserveAspectRatio="none">
  <svg width="30px" height="30px" x="50%" y="50%" viewBox="0 0 40 40" xmlns="http://www.w3.org/2000/svg"  style="overflow: visible">
    <path
       d="M -28.943937,-40 40,-40 40,28.013468 C 40,34.343434 35.723598,40 31.238592,40 L -28.63103,40 C -36.036506,40 -40,35.016835 -40,22.895623 l 0,-49.69697 11.056063,0 0,-13.198653 z m 0,62.895623 0,-42.424243 -5.423729,0 0,42.424243 c 0,6.195286 1.147327,9.158249 2.607562,9.158249 1.773142,0 2.816167,-2.962963 2.816167,-9.158249 z m 63.311603,5.117845 0,-60.740741 -57.67927,0 0,55.622896 c 0,4.309764 -0.625815,7.407407 -1.564537,9.83165 l 56.114733,0 c 1.877445,0 3.129074,-2.828283 3.129074,-4.713805 z m -35.462842,-14.545455 0,2.424243 -13.246415,0 0,-2.424243 13.246415,0 z m 0,7.676768 0,2.424243 -13.246415,0 0,-2.424243 13.246415,0 z m 5.215124,-3.367003 0,-27.340068 22.216427,0 0,27.340068 -22.216427,0 z m -5.215124,-19.39394 0,2.424243 -13.246415,0 0,-2.424243 13.246415,0 z m 0,7.676768 0,2.424242 -13.246415,0 0,-2.424242 13.246415,0 z m 0,-15.622896 0,2.424243 -13.246415,0 0,-2.424243 13.246415,0 z m -11.264668,-7.811447 0,-4.713805 34.732725,0 0,4.713805 -34.732725,0 z"
       style="fill:#fff;" />
  </svg>
</svg>
