<svg xmlns="http://www.w3.org/2000/svg" width="25.601" height="19.201" viewBox="-208.185 -2.744 25.601 19.201" enable-background="new -208.185 -2.744 25.601 19.201">
  <path d="M-203.385 12.457c.312 0 .61-.186.74-.493l3.403-8.17 3.18 5.086c.15.246.426.39.715.375.29-.014.548-.182.678-.44l3.56-7.113 3.228 2.582c.172.137.394.196.61.166.218-.03.412-.147.54-.326l4-5.6c.258-.36.174-.86-.186-1.117s-.86-.175-1.114.187l-3.51 4.913-3.34-2.673c-.188-.15-.436-.208-.672-.156-.236.052-.435.207-.543.423l-3.36 6.73-3.244-5.19c-.16-.255-.446-.398-.745-.374-.298.024-.558.214-.673.49l-4 9.6c-.17.407.022.876.43 1.046.1.038.205.058.307.058zm20 4h-24c-.442 0-.8-.358-.8-.8v-17.6c0-.442.357-.8.8-.8.44 0 .8.355.8.8v16.8h23.2c.44 0 .8.356.8.8 0 .442-.36.8-.8.8z" fill="#D4575E"/>
</svg>
