<?xml version="1.0" encoding="UTF-8" standalone="no"?>
<svg width="98px" height="99px" viewBox="0 0 98 99" version="1.1" xmlns="http://www.w3.org/2000/svg" xmlns:xlink="http://www.w3.org/1999/xlink" xmlns:sketch="http://www.bohemiancoding.com/sketch/ns">
    <!-- Generator: Sketch 3.0.4 (8053) - http://www.bohemiancoding.com/sketch -->
    <title>att</title>
    <desc>Created with Sketch.</desc>
    <defs>
        <radialGradient cx="51.4969388%" cy="49.9929293%" fx="51.4969388%" fy="49.9929293%" r="49.2806122%" id="radialGradient-1">
            <stop stop-color="#FFFFFF" stop-opacity="0" offset="0%"></stop>
            <stop stop-color="#F9F9F9" stop-opacity="0.19" offset="38.1%"></stop>
            <stop stop-color="#EBEAE9" stop-opacity="0.259" offset="51.8%"></stop>
            <stop stop-color="#D9D7D7" stop-opacity="0.308" offset="61.6%"></stop>
            <stop stop-color="#C1BEBE" stop-opacity="0.347" offset="69.5%"></stop>
            <stop stop-color="#A5A2A1" stop-opacity="0.381" offset="76.2%"></stop>
            <stop stop-color="#858281" stop-opacity="0.411" offset="82.3%"></stop>
            <stop stop-color="#636160" stop-opacity="0.438" offset="87.7%"></stop>
            <stop stop-color="#434140" stop-opacity="0.463" offset="92.7%"></stop>
            <stop stop-color="#222121" stop-opacity="0.485" offset="97.1%"></stop>
            <stop stop-color="#010101" stop-opacity="0.5" offset="100%"></stop>
        </radialGradient>
    </defs>
    <g id="Page-1" stroke="none" stroke-width="1" fill="none" fill-rule="evenodd" sketch:type="MSPage">
        <g id="att" sketch:type="MSLayerGroup">
            <path d="M4.351,33.469 C4.351,31.383 4.649,29.913 5.215,28.605 C6.158,26.659 7.225,24.785 8.41,22.989 C8.11,23.497 7.926,24.085 7.926,24.768 C7.926,29.311 19.046,35.212 34.222,37.142 C39.364,37.797 52.976,39.653 63.515,38.787 C84.788,37.033 89.516,29.601 89.516,24.768 C89.516,23.448 88.799,21.52 88.088,20.398 C89.049,21.677 89.962,23.004 90.806,24.38 C92.434,27.213 92.227,28.339 92.227,28.829 C92.227,38.693 73.868,45.136 61.588,48.488 C30.064,57.093 4.351,45.365 4.351,33.469 L4.351,33.469 Z M14.404,19.644 C14.404,24.091 20.879,31.204 39.633,31.204 C50.753,31.204 59.73,29.052 66.507,26.799 C77.37,23.188 82.747,18.776 82.557,15.49 C82.522,14.977 82.327,14.149 81.721,13.494 C79.306,11.338 76.682,9.411 73.877,7.762 C75.732,8.841 76.777,10.096 76.777,11.495 C76.777,16.394 64.812,20.887 49.18,21.284 C33.548,21.688 20.595,17.841 20.247,12.951 C20.128,11.334 21.297,9.74 23.508,8.33 C21.824,9.376 20.201,10.521 18.662,11.757 C14.311,15.367 14.404,19.174 14.404,19.644 L14.404,19.644 Z M55.099,77.071 C45.58,77.409 28.821,74.133 18.272,69.825 C9.773,66.357 1.37,59.6 0.468,53.162 C0.572,54.713 0.75,56.245 0.996,57.75 C6.201,86.149 41.977,84.525 48.145,83.842 C93.146,78.85 97.019,59.639 97.613,55.837 C97.712,55.046 97.787,54.255 97.842,53.449 C97.046,58.51 89.443,75.849 55.099,77.071 L55.099,77.071 Z M20.88,83.551 C12.802,80.213 7.214,74.665 4.976,70.61 C7.039,75 9.735,79.03 12.954,82.582 C23.478,92.473 39.651,93.669 47.081,93.669 C78.538,93.669 89.766,77.137 92.306,72.716 C92.78,71.825 93.221,70.925 93.643,70.003 C88.661,80.258 62.843,100.885 20.88,83.551 L20.88,83.551 Z M97.056,42.242 C97.056,41.455 96.957,39.889 96.592,38.285 C96.328,37.199 96.027,36.129 95.693,35.07 C96.287,37.059 96.187,38.445 96.187,38.981 C96.187,41.401 93.18,56.21 63.608,58.899 C61.046,59.125 42.259,59.42 25.926,55.289 C15.064,52.536 4.155,47.227 2.095,39.851 C1.776,38.7 1.912,37.638 2.167,36.639 C1.338,39.592 0.778,42.661 0.519,45.819 C0.707,53.585 7.45,62.641 19.813,66.538 C33.926,70.982 42.594,71.125 63.118,66.554 C97.378,58.916 97.056,43.917 97.056,42.242 L97.056,42.242 Z" id="Shape" fill="#3192C2" sketch:type="MSShapeGroup"></path>
            <path d="M61.582,48.489 C62.412,48.263 63.27,48.02 64.149,47.762 C60.365,46.95 56.347,46.511 52.176,46.511 C44.262,46.511 36.886,48.086 30.657,50.809 C39.588,52.048 50.203,51.595 61.582,48.489 L61.582,48.489 Z M57.539,29.277 C60.866,28.548 63.853,27.681 66.507,26.798 C67.956,26.315 69.307,25.82 70.561,25.316 C66.836,24.633 63.52,24.202 61.282,23.996 C52.78,23.224 40.116,25.642 36.833,26.319 C35.822,26.525 31.197,27.484 25.566,29.449 C26.886,29.842 28.351,30.181 29.951,30.457 C35.055,29.026 40.332,28.211 45.345,28.211 C48.664,28.211 52.903,28.564 57.539,29.277 L57.539,29.277 Z M58.517,59.016 C55.416,58.999 51.191,58.868 46.437,58.487 C37.999,59.471 30.833,63.242 26.751,68.453 C28.099,68.765 29.426,69.033 30.746,69.244 C35.045,64.524 42.318,61.419 50.569,61.419 C56.584,61.419 62.086,63.069 66.286,65.804 C67.93,65.395 69.48,64.958 70.946,64.511 C67.596,61.941 63.318,60.02 58.517,59.016 L58.517,59.016 Z M86.199,38.188 C88.661,36.37 90.546,34.358 91.508,32.145 C90.328,31.414 88.993,30.736 87.547,30.109 C86.113,31.949 83.766,33.766 80.1,35.291 C82.254,36.17 84.306,37.134 86.199,38.188 L86.199,38.188 Z M75.393,43.927 C77.977,42.873 80.479,41.713 82.728,40.427 C80.395,39.178 77.677,38.045 74.518,37.084 C71.468,37.838 67.829,38.43 63.515,38.786 C62.231,38.892 60.901,38.957 59.548,38.99 C62.567,39.565 65.45,40.339 68.192,41.246 C70.832,42.121 73.222,43.02 75.393,43.927 L75.393,43.927 Z M81.156,55.002 C78.984,55.881 76.496,56.671 73.655,57.335 C75.718,58.572 77.571,59.981 79.176,61.527 C81.488,60.526 83.499,59.484 85.254,58.434 C84.021,57.216 82.642,56.063 81.156,55.002 L81.156,55.002 Z M17.371,32.839 C13.554,34.708 9.818,37.032 6.823,39.868 C7.28,40.452 7.794,41.026 8.372,41.584 C11.651,38.683 15.782,36.094 20.357,33.982 C19.306,33.62 18.311,33.233 17.371,32.839 L17.371,32.839 Z M29.528,56.123 C28.32,55.865 27.117,55.59 25.927,55.289 C25.173,55.102 24.416,54.895 23.659,54.677 C19.702,57.414 16.562,60.723 14.527,64.402 C15.775,65.03 17.107,65.601 18.519,66.098 C19.695,64.004 21.266,62.058 23.202,60.35 C25.027,58.744 27.159,57.322 29.528,56.123 L29.528,56.123 Z M15.86,76.134 C15.86,73.804 16.263,71.499 17.051,69.298 C15.733,68.719 14.428,68.058 13.164,67.332 C12.324,69.571 11.873,71.916 11.873,74.339 C11.873,74.817 11.895,75.284 11.929,75.762 C13.226,76.734 14.592,77.597 16,78.36 C15.91,77.625 15.86,76.881 15.86,76.134 L15.86,76.134 Z M42.39,38.119 C38.942,37.757 36.048,37.374 34.215,37.143 C33.031,36.993 31.871,36.817 30.739,36.622 C24.171,38.703 18.41,41.835 13.907,45.586 C14.825,46.094 15.798,46.575 16.824,47.029 C23.375,42.263 32.325,39.011 42.39,38.119 L42.39,38.119 Z M28.69,86.407 C27.347,85.981 25.979,85.516 24.597,85.006 C25.703,87.37 27.397,89.541 29.552,91.412 C31.348,91.908 33.127,92.299 34.843,92.602 C32.225,90.907 30.114,88.794 28.69,86.407 L28.69,86.407 Z M95.903,35.752 L95.745,35.259 L95.85,35.647 L95.903,35.752 L95.903,35.752 Z M6.992,59.09 C8.203,55.972 10.181,53.06 12.787,50.462 C11.917,50.008 11.077,49.538 10.277,49.045 C7.989,51.551 6.23,54.245 5.097,57.021 C5.672,57.725 6.303,58.419 6.992,59.09 L6.992,59.09 Z M88.113,51.237 C89.266,52.2 90.251,53.152 91.081,54.097 C92.284,52.968 93.241,51.856 94.004,50.8 C93.436,49.819 92.761,48.82 91.956,47.828 C90.934,48.965 89.673,50.12 88.113,51.237 L88.113,51.237 Z M12.395,78.684 C12.818,80.464 13.485,82.173 14.353,83.825 C16.091,85.27 17.952,86.507 19.881,87.562 C18.476,85.68 17.398,83.655 16.717,81.525 C15.145,80.639 13.701,79.682 12.395,78.684 L12.395,78.684 Z M69.229,90.326 C71.524,89.553 73.61,88.675 75.515,87.733 C76.243,86.708 76.854,85.627 77.337,84.511 C75.748,85.306 74.052,86.053 72.251,86.715 C71.436,88.016 70.423,89.227 69.229,90.326 L69.229,90.326 Z M73.596,74.375 C74.04,75.538 74.322,76.766 74.434,78.021 C75.858,77.484 77.194,76.929 78.453,76.367 C78.293,75.233 78.006,74.134 77.598,73.066 C76.338,73.529 75.001,73.97 73.596,74.375 L73.596,74.375 Z M82.282,16.989 C80.042,16.213 77.377,15.633 74.396,15.244 C70.917,17.909 63.89,20.07 55.14,20.92 C60.646,21.471 67.344,22.42 73.74,23.911 C78.576,21.58 81.428,19.131 82.282,16.989 L82.282,16.989 Z M20.668,14.299 C18.479,15.219 16.505,16.167 14.825,17.106 C14.529,18.006 14.442,18.741 14.415,19.194 C16.572,18.083 19.142,16.943 22.014,15.842 C21.425,15.345 20.972,14.833 20.668,14.299 L20.668,14.299 Z M3.784,43.309 C2.519,45.056 1.546,46.962 0.966,49.037 C1.117,49.67 1.314,50.308 1.549,50.943 C2.278,48.871 3.495,46.848 5.102,44.924 C4.611,44.4 4.174,43.862 3.784,43.309 L3.784,43.309 Z M5.62,66.292 C5.62,64.897 5.773,63.526 6.065,62.185 C5.356,61.526 4.695,60.851 4.095,60.166 C3.648,62.138 3.529,64.134 3.766,66.121 C4.407,67.38 5.124,68.552 5.911,69.648 C5.721,68.544 5.62,67.42 5.62,66.292 L5.62,66.292 Z M17.921,25.661 C23.061,23.325 29.382,21.46 36.834,20.685 C34.282,20.355 31.935,19.897 29.849,19.342 C24.967,20.695 20.375,22.313 16.378,24.178 C16.811,24.68 17.322,25.176 17.921,25.661 L17.921,25.661 Z M91.316,67.689 C91.053,66.955 90.753,66.236 90.413,65.525 C88.844,66.955 86.969,68.369 84.738,69.696 C85.081,70.59 85.358,71.508 85.556,72.444 C87.906,70.867 89.799,69.259 91.316,67.689 L91.316,67.689 Z M96.578,57.343 C96.115,58.332 95.517,59.418 94.749,60.556 C94.955,61.268 95.089,61.956 95.172,62.618 C95.966,61.236 96.501,59.977 96.866,58.894 C96.79,58.407 96.698,57.882 96.578,57.343 L96.578,57.343 Z M96.614,38.382 C96.505,37.916 96.388,37.456 96.264,36.998 C96.192,36.833 96.115,36.675 96.03,36.518 C96.236,37.73 96.186,38.589 96.186,38.981 C96.186,39.773 95.866,41.895 94.391,44.483 C95.071,45.267 95.659,46.077 96.148,46.915 C97.084,44.506 97.053,42.753 97.053,42.237 C97.056,41.472 96.964,39.952 96.614,38.382 L96.614,38.382 Z M26.642,79.21 C26.642,77.056 27.155,75.001 28.094,73.088 C26.886,72.758 25.699,72.412 24.545,72.055 C23.624,74.07 23.123,76.23 23.123,78.479 C23.123,79.492 23.225,80.485 23.419,81.458 C24.627,81.836 25.836,82.16 27.04,82.447 C26.779,81.397 26.642,80.31 26.642,79.21 L26.642,79.21 Z M85.674,79.206 C85.549,79.9 85.386,80.597 85.182,81.28 C89.166,77.737 91.337,74.395 92.292,72.736 L92.391,72.553 L92.354,72.196 C90.87,74.384 88.632,76.834 85.674,79.206 L85.674,79.206 Z M76.71,10.897 C78.662,11.689 80.439,12.675 82.01,13.874 C81.932,13.754 81.843,13.63 81.74,13.519 C80.165,12.107 78.511,10.795 76.761,9.597 C76.319,9.322 75.851,9.065 75.365,8.823 C76.09,9.467 76.55,10.161 76.71,10.897 L76.71,10.897 Z M8.378,23.049 L7.965,23.676 L8.199,23.406 L8.378,23.049 L8.378,23.049 Z M88.342,28.926 C89.654,29.609 90.841,30.342 91.885,31.122 C92.104,30.383 92.221,29.618 92.221,28.83 C92.221,28.347 92.425,27.241 90.861,24.479 C90.021,23.104 89.116,21.768 88.145,20.483 L88.108,20.444 C88.813,21.572 89.509,23.464 89.509,24.765 C89.516,26.028 89.195,27.462 88.342,28.926 L88.342,28.926 Z M11.151,29.402 C10.536,28.938 10.007,28.473 9.56,28.006 C7.453,29.461 5.695,31.018 4.369,32.665 C4.357,32.926 4.351,33.192 4.351,33.471 C4.351,33.993 4.403,34.515 4.5,35.032 C6.126,33.218 8.347,31.268 11.151,29.402 L11.151,29.402 Z M4.992,70.645 C6.126,73.055 7.452,75.357 8.946,77.522 C8.138,76.23 7.464,74.876 6.946,73.484 C6.14,72.492 5.489,71.535 4.992,70.645 L4.992,70.645 Z M2.144,36.742 C1.842,37.838 1.572,38.943 1.341,40.073 C1.462,39.642 1.657,39.171 1.911,38.664 C1.892,37.994 1.993,37.357 2.144,36.742 L2.144,36.742 Z M0.785,54.578 C0.644,54.105 0.535,53.637 0.468,53.164 C0.553,54.355 0.672,55.544 0.837,56.707 C0.752,55.995 0.742,55.284 0.785,54.578 L0.785,54.578 Z" id="Shape" fill="#0C7BB5" sketch:type="MSShapeGroup"></path>
            <path d="M20.247,12.951 C20.597,17.841 33.548,21.688 49.178,21.284 C64.812,20.883 76.781,16.392 76.781,11.493 C76.781,10.096 75.732,8.839 73.879,7.76 C66.628,3.495 58.185,1.046 49.166,1.046 C39.752,1.046 30.966,3.714 23.51,8.329 C21.297,9.741 20.13,11.333 20.247,12.951 L20.247,12.951 Z M34.219,37.143 C39.361,37.798 52.973,39.654 63.512,38.788 C84.785,37.034 89.512,29.602 89.512,24.767 C89.512,23.449 88.796,21.517 88.085,20.401 C86.183,17.9 84.053,15.586 81.718,13.494 C82.323,14.148 82.521,14.977 82.553,15.488 C82.75,18.776 77.369,23.188 66.504,26.797 C59.728,29.048 50.754,31.204 39.63,31.204 C20.875,31.204 14.401,24.092 14.401,19.644 C14.401,19.176 14.308,15.363 18.659,11.755 C14.683,14.936 11.219,18.731 8.409,22.987 C8.109,23.495 7.925,24.083 7.925,24.764 C7.925,29.312 19.043,35.21 34.219,37.143 L34.219,37.143 Z M18.271,69.823 C28.82,74.137 45.581,77.417 55.098,77.069 C89.443,75.846 97.045,58.507 97.842,53.449 C97.933,52.265 97.973,51.07 97.973,49.867 C97.973,45.874 97.498,42.001 96.591,38.283 C96.956,39.889 97.055,41.455 97.055,42.24 C97.055,43.914 97.377,58.914 63.118,66.552 C42.594,71.123 33.926,70.983 19.813,66.536 C7.45,62.64 0.705,53.583 0.519,45.815 C0.414,47.147 0.356,48.502 0.356,49.865 C0.356,50.969 0.396,52.068 0.467,53.16 C1.37,59.599 9.773,66.348 18.271,69.823 L18.271,69.823 Z M47.079,93.668 C39.649,93.668 23.476,92.472 12.954,82.581 C21.882,92.464 34.797,98.669 49.166,98.669 C67.867,98.669 84.112,88.149 92.306,72.715 C89.764,77.136 78.534,93.668 47.079,93.668 L47.079,93.668 Z M48.143,83.84 C41.977,84.524 6.199,86.146 0.994,57.748 C1.726,62.271 3.081,66.59 4.974,70.609 C7.214,74.665 12.803,80.213 20.878,83.55 C62.84,100.884 88.659,80.257 93.638,70.001 C95.631,65.592 96.997,60.837 97.609,55.84 C97.017,59.635 93.145,78.848 48.143,83.84 L48.143,83.84 Z M2.17,36.64 C2.952,33.852 3.977,31.169 5.216,28.609 C4.653,29.915 4.352,31.382 4.352,33.474 C4.352,45.371 30.065,57.097 61.583,48.489 C73.866,45.133 92.224,38.694 92.224,28.83 C92.224,28.34 92.43,27.214 90.801,24.381 C92.839,27.703 94.486,31.289 95.692,35.072 C96.286,37.059 96.186,38.447 96.186,38.983 C96.186,41.407 93.179,56.214 63.607,58.9 C61.045,59.129 42.258,59.424 25.925,55.29 C15.063,52.541 4.154,47.228 2.094,39.856 C1.775,38.7 1.916,37.639 2.17,36.64 L2.17,36.64 Z" id="Shape" fill="#FFFFFF" sketch:type="MSShapeGroup"></path>
            <path d="M97.976,49.865 C97.976,76.821 76.128,98.661 49.164,98.661 C22.209,98.661 0.358,76.821 0.358,49.865 C0.358,22.898 22.209,1.051 49.164,1.051 C76.128,1.051 97.976,22.9 97.976,49.865 L97.976,49.865 Z" id="Shape" sketch:type="MSShapeGroup"></path>
            <ellipse id="Oval" opacity="0.4" fill="url(#radialGradient-1)" sketch:type="MSShapeGroup" cx="48.81" cy="49.174" rx="48.81" ry="49.174"></ellipse>
        </g>
    </g>
</svg>