<svg width="750" height="258" viewBox="0 0 750 258" xmlns="http://www.w3.org/2000/svg">
    <desc>
        Created with Sketch.
    </desc>
    <defs>
        <linearGradient x1="52.709%" y1="-.217%" x2="52.709%" y2="99.846%" id="a">
            <stop stop-color="#DE5644" offset="0%"/>
            <stop stop-color="#DA4531" offset="50%"/>
            <stop stop-color="#CE3A28" offset="100%"/>
        </linearGradient>
        <linearGradient x1="49.331%" y1="-.221%" x2="49.331%" y2="100.108%" id="b">
            <stop stop-color="#0AA561" offset="0%"/>
            <stop stop-color="#009B58" offset="50%"/>
            <stop stop-color="#00914B" offset="100%"/>
        </linearGradient>
        <linearGradient x1="54.309%" y1="-.13%" x2="54.309%" y2="100.048%" id="c">
            <stop stop-color="#1A6FEF" offset="0%"/>
            <stop stop-color="#1E72EF" offset="25%"/>
            <stop stop-color="#166BEC" offset="50%"/>
            <stop stop-color="#1267E9" offset="75%"/>
            <stop stop-color="#1063E5" stop-opacity=".87" offset="100%"/>
        </linearGradient>
        <linearGradient x1="51.6%" y1="-.015%" x2="51.6%" y2="99.846%" id="d">
            <stop stop-color="#FFC01A" offset="0%"/>
            <stop stop-color="#FFBA03" offset="50%"/>
            <stop stop-color="#FFB300" offset="100%"/>
        </linearGradient>
        <linearGradient x1="51.186%" y1="-.217%" x2="51.186%" y2="100.059%" id="e">
            <stop stop-color="#DE5744" offset="0%"/>
            <stop stop-color="#DB4632" offset="50%"/>
            <stop stop-color="#D13D29" offset="100%"/>
        </linearGradient>
        <linearGradient x1="54.91%" y1="-.269%" x2="54.91%" y2="100.006%" id="f">
            <stop stop-color="#196EEF" offset="0%"/>
            <stop stop-color="#186DEE" offset="50%"/>
            <stop stop-color="#1065E7" offset="100%"/>
        </linearGradient>
    </defs>
    <g fill="none">
        <path d="M699.913 63.72c-27.12 0-55.93 20.67-55.93 57.78 0 30.65 20.67 62.56 59.29 62.56 9.63 0 17.56-1.24 24.99-4.65 7.97-3.67 15.64-9.63 21.24-17.12-10.57 5.33-19.19 8.83-30.64 8.83-21.76 0-42.74-15.7-50.08-44.56l76.87-31.07c-4.44-15.83-16.96-31.77-45.73-31.77h-.01zm-6.02 7.49c14.55 0 25.07 11.97 25.07 21.34 0 3.03-1.9 4.63-5.66 6.11l-47.25 19.11s-1.28-5.95-1.28-12.38c0-26.97 19.5-34.18 29.12-34.18z" fill="url(#a)"/>
        <path d="M585.533 180.55h48.57l7.4-7.4-13.93-1.74c-3.75-.46-5.98-3.7-5.98-6.84V17.86c0-2.89 1.34-4.37 2.32-5.31l8.76-8.76h-41.42l-10.78 10.78h16.1v151.97c0 2.16-.68 3.63-2.14 5.14l-8.9 8.87z" fill="url(#b)"/>
        <path d="M525.433 63.71c-35.38 0-54.52 22.4-54.52 47.41 0 19.04 13.64 40.52 41.78 40.52h7.12s-1.94 4.71-1.95 9.26c0 6.71 2.41 10.48 7.53 16.28-48.42 2.95-67.88 22.48-67.88 43.47 0 18.38 17.6 36.47 54.59 36.47 43.79 0 66.47-24.31 66.47-48.17 0-16.82-8.38-26.04-29.6-41.94-6.24-4.85-7.45-7.94-7.45-11.57 0-5.2 3.11-8.64 4.25-9.94 2.01-2.12 5.49-4.54 6.79-5.7 7.13-6.04 17.2-14.98 17.2-32.82 0-12.24-5.09-22.77-16.69-32.63h14.16l10.64-10.64h-52.44zm-10.76 6.96c6.42 0 11.78 2.27 17.44 6.98 6.28 5.66 16.31 20.87 16.31 39.69 0 20.31-15.78 25.87-24.32 25.87-4.18 0-9.19-1.17-13.43-4.07-9.42-6.11-18.77-22.37-18.77-41.72 0-17.46 10.4-26.75 22.77-26.75zm14.01 113.22c2.7 0 4.64.22 4.64.22s6.37 4.55 10.82 7.95c10.36 8.19 16.82 14.45 16.82 25.6 0 15.33-14.22 27.35-37.25 27.35-25.28 0-44.6-11.77-44.6-30.99 0-15.92 13.24-29.62 49.57-30.13z" fill="url(#c)"/>
        <path d="M398.083 63.72c-40.51 0-65.61 29.6-65.61 61.02 0 27.12 20.22 59.32 61.19 59.32 39.41 0 63.59-29.66 63.59-61.63 0-29.78-23.63-58.7-59.17-58.7v-.01zm-7.72 7.63c28.56 0 41.28 37.21 41.28 63.75 0 39.47-29.61 40.25-33.15 40.25-13.55 0-23.02-8.19-30.11-18.93-6.24-9.9-12.34-28.29-12.34-46.26 0-17.9 5.86-26.64 15.08-33.07 7.54-4.82 14.6-5.74 19.23-5.74h.01z" fill="url(#d)"/>
        <path d="M260.623 63.72c-40.51 0-65.61 29.6-65.61 61.02 0 27.12 20.22 59.32 61.19 59.32 39.41 0 63.59-29.66 63.59-61.63 0-29.78-23.63-58.7-59.17-58.7v-.01zm-7.72 7.63c28.56 0 41.28 37.21 41.28 63.75 0 39.47-29.61 40.25-33.15 40.25-13.55 0-23.02-8.19-30.11-18.93-6.24-9.9-12.34-28.29-12.34-46.26 0-17.9 5.86-26.64 15.08-33.07 7.54-4.82 14.6-5.74 19.23-5.74h.01z" fill="url(#e)"/>
        <path d="M116.333 125.2h32.21v45.24c-10.05 3.23-22.74 5-35.93 5-53.46 0-84.88-45.78-84.88-90.49 0-43.85 28.42-74.61 68.07-74.61 25.09 0 39.69 8.5 52.75 20.34v14.76l24.49-24.49C157.553 10.47 135.123.51 103.063.51 32.683.51.513 50.86.513 92.24c0 58.9 42.9 94.38 96.81 94.38 26.14 0 49.35-3.99 76.16-11.45v-46.74c0-2.39 1.05-4.03 2.62-5.47l8.46-8.46h-57.45l-10.78 10.7z" fill="url(#f)"/>
    </g>
</svg>
